﻿facultad_de_ciencias_economicas_y_administrativas Administracion_Hotelera_y_Gastronomica 19086 10 40 20 20 10 10 500 475 731.60 500.80 60 5
facultad_de_ciencias_economicas_y_administrativas Administracion_Publica_-_Valparaiso 19068 10 20 35 25 10 - 500 500 723.45 574.90 75 2
facultad_de_ciencias_economicas_y_administrativas Administracion_Publica_-_Santiago 19005 10 20 35 25 10 - 500 500 655.60 571.45 75 2
facultad_de_ciencias_economicas_y_administrativas Auditoria_-_Valparaiso 19062 10 40 20 15 15 15 500 475 725.45 509.65 100 5
facultad_de_ciencias_economicas_y_administrativas Auditoria_-_Santiago 19093 10 40 20 15 15 15 500 475 729.65 500.55 60 5
facultad_de_ciencias_economicas_y_administrativas Auditoria_Vespertino_-_Valparaiso 19069 10 40 20 15 15 15 500 475 700.15 504.55 20 0
facultad_de_ciencias_economicas_y_administrativas Ingenieria_Comercial_-_Vina_del_Mar 19060 10 40 10 30 10 - 500 500 705.20 578.10 150 12
facultad_de_ciencias_economicas_y_administrativas Ingenieria_Comercial_-_Santiago 19095 10 40 10 30 10 - 500 500 647.30 500.90 125 12
facultad_de_ciencias_economicas_y_administrativas Ingenieria_en_Informacion_y_Control_de_Gestion 19083 10 40 10 30 10 10 500 475 722.80 501.80 50 5
facultad_de_ciencias_economicas_y_administrativas Ingenieria_en_Negocios_Internacionales_-_Vina 19088 10 30 20 30 10 10 500 475 693.60 529.20 80 5
facultad_de_ciencias_economicas_y_administrativas Ingenieria_en_Negocios_Internacionales_-_Stgo. 19089 10 30 20 30 10 10 500 475 694.70 511.80 35 5